{
  "version": "14.0.4",
  "vulnerabilities": [
    {
      "id": "793a39905ec1187a4bfda4c6f86d9841a08c9f37eac81f4436e100214cbad151",
      "category": "sast",
      "message": "Improper Limitation of a Pathname to a Restricted Directory ('Path Traversal')",
      "description": "File open from tainted variable\n",
      "cve": "semgrep_id:gosec.G304-1:11:11",
      "severity": "Medium",
      "scanner": {
        "id": "semgrep",
        "name": "Semgrep"
      },
      "location": {
        "file": "main.go",
        "start_line": 11
      },
      "identifiers": [
        {
          "type": "semgrep_id",
          "name": "gosec.G304-1",
          "value": "gosec.G304-1"
        },
        {
          "type": "cwe",
          "name": "CWE-22",
          "value": "22",
          "url": "https://cwe.mitre.org/data/definitions/22.html"
        },
        {
          "type": "gosec_rule_id",
          "name": "Gosec Rule ID G304",
          "value": "G304"
        }
      ],
      "tracking": {
        "type": "source",
        "items": [
          {
            "file": "main.go",
            "line_start": 11,
            "line_end": 11,
            "signatures": [
              {
                "algorithm": "scope_offset",
                "value": "main.go|main[0]:2"
              }
            ]
          }
        ]
      }
    }
  ],
  "dependency_files": [],
  "scan": {
    "analyzer": {
      "id": "semgrep",
      "name": "Semgrep",
      "url": "https://gitlab.com/gitlab-org/security-products/analyzers/semgrep",
      "vendor": {
        "name": "GitLab"
      },
      "version": "3.13.1"
    },
    "scanner": {
      "id": "semgrep",
      "name": "Semgrep",
      "url": "https://github.com/returntocorp/semgrep",
      "vendor": {
        "name": "GitLab"
      },
      "version": "1.3.0"
    },
    "type": "sast",
    "start_time": "2023-02-16T06:45:57",
    "end_time": "2023-02-16T06:46:05",
    "status": "success"
  }
}
