{
  "version": "14.0.4",
  "vulnerabilities": [
    {
      "id": "c8a45719634ba76a5c14bda01a123eee0499eccf8bf94802ea70563072f4cd0b",
      "category": "sast",
      "message": "Use of Hard-coded Password",
      "description": "Hardcoded password is used as a default argument to 'doLogin'. This could be dangerous if\na real password is not supplied.\n",
      "cve": "semgrep_id:bandit.B107:16:17",
      "severity": "Medium",
      "scanner": {
        "id": "semgrep",
        "name": "Semgrep"
      },
      "location": {
        "file": "app1/hardcoded/hardcoded-passwords.py",
        "start_line": 16,
        "end_line": 17
      },
      "identifiers": [
        {
          "type": "semgrep_id",
          "name": "bandit.B107",
          "value": "bandit.B107",
          "url": "https://semgrep.dev/r/gitlab.bandit.B107"
        },
        {
          "type": "cwe",
          "name": "CWE-259",
          "value": "259",
          "url": "https://cwe.mitre.org/data/definitions/259.html"
        },
        {
          "type": "owasp",
          "name": "A3 - Broken Authentication and Session Management",
          "value": "A3"
        },
        {
          "type": "bandit_test_id",
          "name": "Bandit Test ID B107",
          "value": "B107"
        }
      ],
      "tracking": {
        "type": "source",
        "items": [
          {
            "file": "app1/hardcoded/hardcoded-passwords.py",
            "line_start": 16,
            "line_end": 16,
            "signatures": [
              {
                "algorithm": "scope_offset",
                "value": "app1/hardcoded/hardcoded-passwords.py|doLogin[0]:0"
              }
            ]
          }
        ]
      }
    },
    {
      "id": "b845ec47c0df251225374da1b3c1e87e6238c9e75f0146062ba689d20c9c4609",
      "category": "sast",
      "message": "Use of Hard-coded Password",
      "description": "Hardcoded password is used as a default argument to 'someFunction'. This could be dangerous if\na real password is not supplied.\n",
      "cve": "semgrep_id:bandit.B107:1:2",
      "severity": "Medium",
      "scanner": {
        "id": "semgrep",
        "name": "Semgrep"
      },
      "location": {
        "file": "app1/hardcoded/hardcoded-passwords.py",
        "start_line": 1,
        "end_line": 2
      },
      "identifiers": [
        {
          "type": "semgrep_id",
          "name": "bandit.B107",
          "value": "bandit.B107",
          "url": "https://semgrep.dev/r/gitlab.bandit.B107"
        },
        {
          "type": "cwe",
          "name": "CWE-259",
          "value": "259",
          "url": "https://cwe.mitre.org/data/definitions/259.html"
        },
        {
          "type": "owasp",
          "name": "A3 - Broken Authentication and Session Management",
          "value": "A3"
        },
        {
          "type": "bandit_test_id",
          "name": "Bandit Test ID B107",
          "value": "B107"
        }
      ],
      "tracking": {
        "type": "source",
        "items": [
          {
            "file": "app1/hardcoded/hardcoded-passwords.py",
            "line_start": 1,
            "line_end": 1,
            "signatures": [
              {
                "algorithm": "scope_offset",
                "value": "app1/hardcoded/hardcoded-passwords.py|someFunction[0]:0"
              }
            ]
          }
        ]
      }
    },
    {
      "id": "816f4d95f65245c03861885dacfd1ebb37facf9f4c1b938bb996dea5c6d94d83",
      "category": "sast",
      "message": "Use of Hard-coded Password",
      "description": "Possible hardcoded password\n",
      "cve": "semgrep_id:bandit.B105:13:13",
      "severity": "Info",
      "scanner": {
        "id": "semgrep",
        "name": "Semgrep"
      },
      "location": {
        "file": "app1/hardcoded/hardcoded-passwords.py",
        "start_line": 13
      },
      "identifiers": [
        {
          "type": "semgrep_id",
          "name": "bandit.B105",
          "value": "bandit.B105",
          "url": "https://semgrep.dev/r/gitlab.bandit.B105"
        },
        {
          "type": "cwe",
          "name": "CWE-259",
          "value": "259",
          "url": "https://cwe.mitre.org/data/definitions/259.html"
        },
        {
          "type": "owasp",
          "name": "A3 - Broken Authentication and Session Management",
          "value": "A3"
        },
        {
          "type": "bandit_test_id",
          "name": "Bandit Test ID B105",
          "value": "B105"
        }
      ],
      "tracking": {
        "type": "source",
        "items": [
          {
            "file": "app1/hardcoded/hardcoded-passwords.py",
            "line_start": 13,
            "line_end": 13,
            "signatures": [
              {
                "algorithm": "scope_offset",
                "value": "app1/hardcoded/hardcoded-passwords.py|NoMatch2[0]:1"
              }
            ]
          }
        ]
      }
    },
    {
      "id": "ed020e3ad2d3983c1681c6fe58676f342253c420bfa4a2925f9ef4e23195e080",
      "category": "sast",
      "message": "Use of Hard-coded Password",
      "description": "Possible hardcoded password\n",
      "cve": "semgrep_id:bandit.B105:23:23",
      "severity": "Info",
      "scanner": {
        "id": "semgrep",
        "name": "Semgrep"
      },
      "location": {
        "file": "app1/hardcoded/hardcoded-passwords.py",
        "start_line": 23
      },
      "identifiers": [
        {
          "type": "semgrep_id",
          "name": "bandit.B105",
          "value": "bandit.B105",
          "url": "https://semgrep.dev/r/gitlab.bandit.B105"
        },
        {
          "type": "cwe",
          "name": "CWE-259",
          "value": "259",
          "url": "https://cwe.mitre.org/data/definitions/259.html"
        },
        {
          "type": "owasp",
          "name": "A3 - Broken Authentication and Session Management",
          "value": "A3"
        },
        {
          "type": "bandit_test_id",
          "name": "Bandit Test ID B105",
          "value": "B105"
        }
      ]
    },
    {
      "id": "1ae4bf4abf140b66affe1c47876837bea6fc761c9c39c3f5a697a6a05cc3a7ff",
      "category": "sast",
      "message": "Use of Hard-coded Password",
      "description": "Possible hardcoded password\n",
      "cve": "semgrep_id:bandit.B105:5:5",
      "severity": "Info",
      "scanner": {
        "id": "semgrep",
        "name": "Semgrep"
      },
      "location": {
        "file": "app1/hardcoded/hardcoded-passwords.py",
        "start_line": 5
      },
      "identifiers": [
        {
          "type": "semgrep_id",
          "name": "bandit.B105",
          "value": "bandit.B105",
          "url": "https://semgrep.dev/r/gitlab.bandit.B105"
        },
        {
          "type": "cwe",
          "name": "CWE-259",
          "value": "259",
          "url": "https://cwe.mitre.org/data/definitions/259.html"
        },
        {
          "type": "owasp",
          "name": "A3 - Broken Authentication and Session Management",
          "value": "A3"
        },
        {
          "type": "bandit_test_id",
          "name": "Bandit Test ID B105",
          "value": "B105"
        }
      ],
      "tracking": {
        "type": "source",
        "items": [
          {
            "file": "app1/hardcoded/hardcoded-passwords.py",
            "line_start": 5,
            "line_end": 5,
            "signatures": [
              {
                "algorithm": "scope_offset",
                "value": "app1/hardcoded/hardcoded-passwords.py|someFunction2[0]:1"
              }
            ]
          }
        ]
      }
    },
    {
      "id": "ab9d30a127af23e4e11b94def484c2e175d76bc453545a3eae70cb3fdf4f7055",
      "category": "sast",
      "message": "Use of Hard-coded Password",
      "description": "Possible hardcoded password\n",
      "cve": "semgrep_id:bandit.B105:9:9",
      "severity": "Info",
      "scanner": {
        "id": "semgrep",
        "name": "Semgrep"
      },
      "location": {
        "file": "app1/hardcoded/hardcoded-passwords.py",
        "start_line": 9
      },
      "identifiers": [
        {
          "type": "semgrep_id",
          "name": "bandit.B105",
          "value": "bandit.B105",
          "url": "https://semgrep.dev/r/gitlab.bandit.B105"
        },
        {
          "type": "cwe",
          "name": "CWE-259",
          "value": "259",
          "url": "https://cwe.mitre.org/data/definitions/259.html"
        },
        {
          "type": "owasp",
          "name": "A3 - Broken Authentication and Session Management",
          "value": "A3"
        },
        {
          "type": "bandit_test_id",
          "name": "Bandit Test ID B105",
          "value": "B105"
        }
      ],
      "tracking": {
        "type": "source",
        "items": [
          {
            "file": "app1/hardcoded/hardcoded-passwords.py",
            "line_start": 9,
            "line_end": 9,
            "signatures": [
              {
                "algorithm": "scope_offset",
                "value": "app1/hardcoded/hardcoded-passwords.py|noMatch[0]:1"
              }
            ]
          }
        ]
      }
    },
    {
      "id": "793aea37cb032a4e0db29f927083656dc1a4b37587187113966fc4721c5edc4f",
      "category": "sast",
      "message": "Use of Hard-coded Password",
      "description": "Possible hardcoded password\n",
      "cve": "semgrep_id:bandit.B106:22:22",
      "severity": "Info",
      "scanner": {
        "id": "semgrep",
        "name": "Semgrep"
      },
      "location": {
        "file": "app1/hardcoded/hardcoded-passwords.py",
        "start_line": 22
      },
      "identifiers": [
        {
          "type": "semgrep_id",
          "name": "bandit.B106",
          "value": "bandit.B106",
          "url": "https://semgrep.dev/r/gitlab.bandit.B106"
        },
        {
          "type": "cwe",
          "name": "CWE-259",
          "value": "259",
          "url": "https://cwe.mitre.org/data/definitions/259.html"
        },
        {
          "type": "owasp",
          "name": "A3 - Broken Authentication and Session Management",
          "value": "A3"
        },
        {
          "type": "bandit_test_id",
          "name": "Bandit Test ID B106",
          "value": "B106"
        }
      ]
    },
    {
      "id": "224f1e0662559b9219b3ced91885f75df4e1e46cbf3e0fdb0b3de70859924f49",
      "category": "sast",
      "message": "Insecure Temporary File",
      "description": "Probable insecure usage of temp file/directory.\n",
      "cve": "semgrep_id:bandit.B108-2:10:10",
      "severity": "Medium",
      "scanner": {
        "id": "semgrep",
        "name": "Semgrep"
      },
      "location": {
        "file": "app1/hardcoded/hardcoded-tmp.py",
        "start_line": 10
      },
      "identifiers": [
        {
          "type": "semgrep_id",
          "name": "bandit.B108-2",
          "value": "bandit.B108-2",
          "url": "https://semgrep.dev/r/gitlab.bandit.B108-2"
        },
        {
          "type": "cwe",
          "name": "CWE-377",
          "value": "377",
          "url": "https://cwe.mitre.org/data/definitions/377.html"
        },
        {
          "type": "bandit_test_id",
          "name": "Bandit Test ID B108",
          "value": "B108"
        }
      ]
    },
    {
      "id": "1800792f9ed087c93365b12118f82b4dfe70e49a89d810b7f47dc74321ca440c",
      "category": "sast",
      "message": "Insecure Temporary File",
      "description": "Probable insecure usage of temp file/directory.\n",
      "cve": "semgrep_id:bandit.B108-2:14:14",
      "severity": "Medium",
      "scanner": {
        "id": "semgrep",
        "name": "Semgrep"
      },
      "location": {
        "file": "app1/hardcoded/hardcoded-tmp.py",
        "start_line": 14
      },
      "identifiers": [
        {
          "type": "semgrep_id",
          "name": "bandit.B108-2",
          "value": "bandit.B108-2",
          "url": "https://semgrep.dev/r/gitlab.bandit.B108-2"
        },
        {
          "type": "cwe",
          "name": "CWE-377",
          "value": "377",
          "url": "https://cwe.mitre.org/data/definitions/377.html"
        },
        {
          "type": "bandit_test_id",
          "name": "Bandit Test ID B108",
          "value": "B108"
        }
      ]
    },
    {
      "id": "ff0e9ca75b9f85e7d57d6cfeeb639c4fcc70471aa3841b61916b11617f370eca",
      "category": "sast",
      "message": "Insecure Temporary File",
      "description": "Probable insecure usage of temp file/directory.\n",
      "cve": "semgrep_id:bandit.B108-2:1:1",
      "severity": "Medium",
      "scanner": {
        "id": "semgrep",
        "name": "Semgrep"
      },
      "location": {
        "file": "app1/hardcoded/hardcoded-tmp.py",
        "start_line": 1
      },
      "identifiers": [
        {
          "type": "semgrep_id",
          "name": "bandit.B108-2",
          "value": "bandit.B108-2",
          "url": "https://semgrep.dev/r/gitlab.bandit.B108-2"
        },
        {
          "type": "cwe",
          "name": "CWE-377",
          "value": "377",
          "url": "https://cwe.mitre.org/data/definitions/377.html"
        },
        {
          "type": "bandit_test_id",
          "name": "Bandit Test ID B108",
          "value": "B108"
        }
      ]
    },
    {
      "id": "fc1e6f8c7ab697af979ca77c0a4c4372c7893ed4d548f063618033b72f667142",
      "category": "sast",
      "message": "Insecure Temporary File",
      "description": "Detected hardcoded temp directory. Consider using 'tempfile.TemporaryFile' instead.\n",
      "cve": "semgrep_id:bandit.B108:1:1",
      "severity": "Medium",
      "scanner": {
        "id": "semgrep",
        "name": "Semgrep"
      },
      "location": {
        "file": "app1/hardcoded/hardcoded-tmp.py",
        "start_line": 1
      },
      "identifiers": [
        {
          "type": "semgrep_id",
          "name": "bandit.B108",
          "value": "bandit.B108",
          "url": "https://semgrep.dev/r/gitlab.bandit.B108"
        },
        {
          "type": "cwe",
          "name": "CWE-377",
          "value": "377",
          "url": "https://cwe.mitre.org/data/definitions/377.html"
        },
        {
          "type": "bandit_test_id",
          "name": "Bandit Test ID B108",
          "value": "B108"
        }
      ]
    },
    {
      "id": "2e65d37268fafca18cf5bf6555431cf6962b79334c79f51ee655518bc8af20da",
      "category": "sast",
      "message": "Improper Neutralization of Special Elements used in an OS Command ('OS Command Injection')",
      "description": "Found 'subprocess' function 'pop' with 'shell=True'. This is dangerous because this call will spawn\nthe command using a shell process. Doing so propagates current shell settings and variables, which\nmakes it much easier for a malicious actor to execute commands. Use 'shell=False' instead.\n",
      "cve": "semgrep_id:bandit.B602:9:9",
      "severity": "Critical",
      "scanner": {
        "id": "semgrep",
        "name": "Semgrep"
      },
      "location": {
        "file": "app1/imports/imports-aliases.py",
        "start_line": 9
      },
      "identifiers": [
        {
          "type": "semgrep_id",
          "name": "bandit.B602",
          "value": "bandit.B602",
          "url": "https://semgrep.dev/r/gitlab.bandit.B602"
        },
        {
          "type": "cwe",
          "name": "CWE-78",
          "value": "78",
          "url": "https://cwe.mitre.org/data/definitions/78.html"
        },
        {
          "type": "owasp",
          "name": "A1 - Injection",
          "value": "A1"
        },
        {
          "type": "bandit_test_id",
          "name": "Bandit Test ID B602",
          "value": "B602"
        }
      ]
    },
    {
      "id": "6ee52b923977d64a925c88ad1d96b97542c72fa19dc7965b0153e0027c687577",
      "category": "sast",
      "message": "Deserialization of Untrusted Data",
      "description": "Avoid using `pickle`, which is known to lead to code execution vulnerabilities.\nWhen unpickling, the serialized data could be manipulated to run arbitrary code.\nInstead, consider serializing the relevant data as JSON or a similar text-based\nserialization format.\n",
      "cve": "semgrep_id:bandit.B301-1:15:15",
      "severity": "Medium",
      "scanner": {
        "id": "semgrep",
        "name": "Semgrep"
      },
      "location": {
        "file": "app1/imports/imports-aliases.py",
        "start_line": 15
      },
      "identifiers": [
        {
          "type": "semgrep_id",
          "name": "bandit.B301-1",
          "value": "bandit.B301-1",
          "url": "https://semgrep.dev/r/gitlab.bandit.B301-1"
        },
        {
          "type": "cwe",
          "name": "CWE-502",
          "value": "502",
          "url": "https://cwe.mitre.org/data/definitions/502.html"
        },
        {
          "type": "owasp",
          "name": "A8 - Insecure Deserialization",
          "value": "A8"
        },
        {
          "type": "bandit_test_id",
          "name": "Bandit Test ID B301-1",
          "value": "B301-1"
        }
      ]
    },
    {
      "id": "cfbd6a43268d499dcbe6fdc4ea19698e5c86a91d7645378b6726364790a9e51a",
      "category": "sast",
      "message": "Use of a Broken or Risky Cryptographic Algorithm",
      "description": "Detected MD5 hash algorithm which is considered insecure. MD5 is not\ncollision resistant and is therefore not suitable as a cryptographic\nsignature. Use SHA256 or SHA3 instead.\n",
      "cve": "semgrep_id:bandit.B303-1:11:11",
      "severity": "Medium",
      "scanner": {
        "id": "semgrep",
        "name": "Semgrep"
      },
      "location": {
        "file": "app1/imports/imports-aliases.py",
        "start_line": 11
      },
      "identifiers": [
        {
          "type": "semgrep_id",
          "name": "bandit.B303-1",
          "value": "bandit.B303-1",
          "url": "https://semgrep.dev/r/gitlab.bandit.B303-1"
        },
        {
          "type": "cwe",
          "name": "CWE-327",
          "value": "327",
          "url": "https://cwe.mitre.org/data/definitions/327.html"
        },
        {
          "type": "owasp",
          "name": "A3 - Sensitive Data Exposure",
          "value": "A3"
        },
        {
          "type": "bandit_test_id",
          "name": "Bandit Test ID B303",
          "value": "B303"
        }
      ]
    },
    {
      "id": "775f2df1087a7163a9bc0ec65ee17bc04f5bc260f385ab0f1102a6d39bc6c350",
      "category": "sast",
      "message": "Use of a Broken or Risky Cryptographic Algorithm",
      "description": "Detected MD5 hash algorithm which is considered insecure. MD5 is not\ncollision resistant and is therefore not suitable as a cryptographic\nsignature. Use SHA256 or SHA3 instead.\n",
      "cve": "semgrep_id:bandit.B303-1:12:12",
      "severity": "Medium",
      "scanner": {
        "id": "semgrep",
        "name": "Semgrep"
      },
      "location": {
        "file": "app1/imports/imports-aliases.py",
        "start_line": 12
      },
      "identifiers": [
        {
          "type": "semgrep_id",
          "name": "bandit.B303-1",
          "value": "bandit.B303-1",
          "url": "https://semgrep.dev/r/gitlab.bandit.B303-1"
        },
        {
          "type": "cwe",
          "name": "CWE-327",
          "value": "327",
          "url": "https://cwe.mitre.org/data/definitions/327.html"
        },
        {
          "type": "owasp",
          "name": "A3 - Sensitive Data Exposure",
          "value": "A3"
        },
        {
          "type": "bandit_test_id",
          "name": "Bandit Test ID B303",
          "value": "B303"
        }
      ]
    },
    {
      "id": "0b40cc491f96becb24d5731f78c42a66515bd3ea9db78c2a62fe4f99affb55ab",
      "category": "sast",
      "message": "Use of a Broken or Risky Cryptographic Algorithm",
      "description": "Detected MD5 hash algorithm which is considered insecure. MD5 is not\ncollision resistant and is therefore not suitable as a cryptographic\nsignature. Use SHA256 or SHA3 instead.\n",
      "cve": "semgrep_id:bandit.B303-1:13:13",
      "severity": "Medium",
      "scanner": {
        "id": "semgrep",
        "name": "Semgrep"
      },
      "location": {
        "file": "app1/imports/imports-aliases.py",
        "start_line": 13
      },
      "identifiers": [
        {
          "type": "semgrep_id",
          "name": "bandit.B303-1",
          "value": "bandit.B303-1",
          "url": "https://semgrep.dev/r/gitlab.bandit.B303-1"
        },
        {
          "type": "cwe",
          "name": "CWE-327",
          "value": "327",
          "url": "https://cwe.mitre.org/data/definitions/327.html"
        },
        {
          "type": "owasp",
          "name": "A3 - Sensitive Data Exposure",
          "value": "A3"
        },
        {
          "type": "bandit_test_id",
          "name": "Bandit Test ID B303",
          "value": "B303"
        }
      ]
    },
    {
      "id": "d8f8ee3b0bbb5bedbdd2bd2d244c4fb54c034dd5884ba035dce058b38efa0436",
      "category": "sast",
      "message": "Use of a Broken or Risky Cryptographic Algorithm",
      "description": "Detected MD5 hash algorithm which is considered insecure. MD5 is not\ncollision resistant and is therefore not suitable as a cryptographic\nsignature. Use SHA256 or SHA3 instead.\n",
      "cve": "semgrep_id:bandit.B303-1:14:14",
      "severity": "Medium",
      "scanner": {
        "id": "semgrep",
        "name": "Semgrep"
      },
      "location": {
        "file": "app1/imports/imports-aliases.py",
        "start_line": 14
      },
      "identifiers": [
        {
          "type": "semgrep_id",
          "name": "bandit.B303-1",
          "value": "bandit.B303-1",
          "url": "https://semgrep.dev/r/gitlab.bandit.B303-1"
        },
        {
          "type": "cwe",
          "name": "CWE-327",
          "value": "327",
          "url": "https://cwe.mitre.org/data/definitions/327.html"
        },
        {
          "type": "owasp",
          "name": "A3 - Sensitive Data Exposure",
          "value": "A3"
        },
        {
          "type": "bandit_test_id",
          "name": "Bandit Test ID B303",
          "value": "B303"
        }
      ]
    },
    {
      "id": "d6a1ee2035d764582c38339f7d5af2c80caae663dc62e157bdc4d29395ef332e",
      "category": "sast",
      "message": "Improper Neutralization of Special Elements used in an OS Command ('OS Command Injection')",
      "description": "Consider possible security implications associated with subprocess module.\n",
      "cve": "semgrep_id:bandit.B404:1:1",
      "severity": "Medium",
      "scanner": {
        "id": "semgrep",
        "name": "Semgrep"
      },
      "location": {
        "file": "app1/imports/imports-aliases.py",
        "start_line": 1
      },
      "identifiers": [
        {
          "type": "semgrep_id",
          "name": "bandit.B404",
          "value": "bandit.B404",
          "url": "https://semgrep.dev/r/gitlab.bandit.B404"
        },
        {
          "type": "cwe",
          "name": "CWE-78",
          "value": "78",
          "url": "https://cwe.mitre.org/data/definitions/78.html"
        },
        {
          "type": "owasp",
          "name": "A8 - Insecure Deserialization",
          "value": "A8"
        },
        {
          "type": "bandit_test_id",
          "name": "Bandit Test ID B404",
          "value": "B404"
        }
      ]
    },
    {
      "id": "bad1e1748e7ebf67e8bfbb738eaaae6d335a6998649d1aaf486c9670947f53d1",
      "category": "sast",
      "message": "Deserialization of Untrusted Data",
      "description": "Consider possible security implications associated with pickle module.\n",
      "cve": "semgrep_id:bandit.B403:6:6",
      "severity": "Info",
      "scanner": {
        "id": "semgrep",
        "name": "Semgrep"
      },
      "location": {
        "file": "app1/imports/imports-aliases.py",
        "start_line": 6
      },
      "identifiers": [
        {
          "type": "semgrep_id",
          "name": "bandit.B403",
          "value": "bandit.B403",
          "url": "https://semgrep.dev/r/gitlab.bandit.B403"
        },
        {
          "type": "cwe",
          "name": "CWE-502",
          "value": "502",
          "url": "https://cwe.mitre.org/data/definitions/502.html"
        },
        {
          "type": "owasp",
          "name": "A8 - Insecure Deserialization",
          "value": "A8"
        },
        {
          "type": "bandit_test_id",
          "name": "Bandit Test ID B403",
          "value": "B403"
        }
      ]
    },
    {
      "id": "115db443bf16af3c39bc6166998ca09f265430de8cf285b89e4a493ca3b29205",
      "category": "sast",
      "message": "Deserialization of Untrusted Data",
      "description": "Consider possible security implications associated with pickle module.\n",
      "cve": "semgrep_id:bandit.B403:7:7",
      "severity": "Info",
      "scanner": {
        "id": "semgrep",
        "name": "Semgrep"
      },
      "location": {
        "file": "app1/imports/imports-aliases.py",
        "start_line": 7
      },
      "identifiers": [
        {
          "type": "semgrep_id",
          "name": "bandit.B403",
          "value": "bandit.B403",
          "url": "https://semgrep.dev/r/gitlab.bandit.B403"
        },
        {
          "type": "cwe",
          "name": "CWE-502",
          "value": "502",
          "url": "https://cwe.mitre.org/data/definitions/502.html"
        },
        {
          "type": "owasp",
          "name": "A8 - Insecure Deserialization",
          "value": "A8"
        },
        {
          "type": "bandit_test_id",
          "name": "Bandit Test ID B403",
          "value": "B403"
        }
      ]
    },
    {
      "id": "1b061994c693ebe0d73e37e1ef64ea0567b6a22c51726a75ceab9ee951dcd662",
      "category": "sast",
      "message": "Improper Neutralization of Special Elements used in an OS Command ('OS Command Injection')",
      "description": "Consider possible security implications associated with subprocess module.\n",
      "cve": "semgrep_id:bandit.B404:1:1",
      "severity": "Medium",
      "scanner": {
        "id": "semgrep",
        "name": "Semgrep"
      },
      "location": {
        "file": "app1/imports/imports-from.py",
        "start_line": 1
      },
      "identifiers": [
        {
          "type": "semgrep_id",
          "name": "bandit.B404",
          "value": "bandit.B404",
          "url": "https://semgrep.dev/r/gitlab.bandit.B404"
        },
        {
          "type": "cwe",
          "name": "CWE-78",
          "value": "78",
          "url": "https://cwe.mitre.org/data/definitions/78.html"
        },
        {
          "type": "owasp",
          "name": "A8 - Insecure Deserialization",
          "value": "A8"
        },
        {
          "type": "bandit_test_id",
          "name": "Bandit Test ID B404",
          "value": "B404"
        }
      ]
    },
    {
      "id": "8b42e09a4599f4fd24685dcb95775ce945f0e8a3a14e9056e4469496d39b51b0",
      "category": "sast",
      "message": "Improper Neutralization of Special Elements used in an OS Command ('OS Command Injection')",
      "description": "Consider possible security implications associated with subprocess module.\n",
      "cve": "semgrep_id:bandit.B404:4:4",
      "severity": "Medium",
      "scanner": {
        "id": "semgrep",
        "name": "Semgrep"
      },
      "location": {
        "file": "app1/imports/imports.py",
        "start_line": 4
      },
      "identifiers": [
        {
          "type": "semgrep_id",
          "name": "bandit.B404",
          "value": "bandit.B404",
          "url": "https://semgrep.dev/r/gitlab.bandit.B404"
        },
        {
          "type": "cwe",
          "name": "CWE-78",
          "value": "78",
          "url": "https://cwe.mitre.org/data/definitions/78.html"
        },
        {
          "type": "owasp",
          "name": "A8 - Insecure Deserialization",
          "value": "A8"
        },
        {
          "type": "bandit_test_id",
          "name": "Bandit Test ID B404",
          "value": "B404"
        }
      ]
    },
    {
      "id": "85f0d8527ca98fe048476eae7bb08cd46b22462d6deffa9277f800c8d653c55c",
      "category": "sast",
      "message": "Deserialization of Untrusted Data",
      "description": "Consider possible security implications associated with pickle module.\n",
      "cve": "semgrep_id:bandit.B403:2:2",
      "severity": "Info",
      "scanner": {
        "id": "semgrep",
        "name": "Semgrep"
      },
      "location": {
        "file": "app1/imports/imports.py",
        "start_line": 2
      },
      "identifiers": [
        {
          "type": "semgrep_id",
          "name": "bandit.B403",
          "value": "bandit.B403",
          "url": "https://semgrep.dev/r/gitlab.bandit.B403"
        },
        {
          "type": "cwe",
          "name": "CWE-502",
          "value": "502",
          "url": "https://cwe.mitre.org/data/definitions/502.html"
        },
        {
          "type": "owasp",
          "name": "A8 - Insecure Deserialization",
          "value": "A8"
        },
        {
          "type": "bandit_test_id",
          "name": "Bandit Test ID B403",
          "value": "B403"
        }
      ]
    },
    {
      "id": "9e4f0e5aaca7aa202ce06fbf542cbee079a45864fad261c9199472ea228db95e",
      "category": "sast",
      "message": "Use of Hard-coded Password",
      "description": "Hardcoded password is used as a default argument to 'doLogin'. This could be dangerous if\na real password is not supplied.\n",
      "cve": "semgrep_id:bandit.B107:16:17",
      "severity": "Medium",
      "scanner": {
        "id": "semgrep",
        "name": "Semgrep"
      },
      "location": {
        "file": "app2/hardcoded/hardcoded-passwords.py",
        "start_line": 16,
        "end_line": 17
      },
      "identifiers": [
        {
          "type": "semgrep_id",
          "name": "bandit.B107",
          "value": "bandit.B107",
          "url": "https://semgrep.dev/r/gitlab.bandit.B107"
        },
        {
          "type": "cwe",
          "name": "CWE-259",
          "value": "259",
          "url": "https://cwe.mitre.org/data/definitions/259.html"
        },
        {
          "type": "owasp",
          "name": "A3 - Broken Authentication and Session Management",
          "value": "A3"
        },
        {
          "type": "bandit_test_id",
          "name": "Bandit Test ID B107",
          "value": "B107"
        }
      ],
      "tracking": {
        "type": "source",
        "items": [
          {
            "file": "app2/hardcoded/hardcoded-passwords.py",
            "line_start": 16,
            "line_end": 16,
            "signatures": [
              {
                "algorithm": "scope_offset",
                "value": "app2/hardcoded/hardcoded-passwords.py|doLogin[0]:0"
              }
            ]
          }
        ]
      }
    },
    {
      "id": "59f67debc855a581936c4acb663dc02620a515c41832a4fd8f141d3711030f30",
      "category": "sast",
      "message": "Use of Hard-coded Password",
      "description": "Hardcoded password is used as a default argument to 'someFunction'. This could be dangerous if\na real password is not supplied.\n",
      "cve": "semgrep_id:bandit.B107:1:2",
      "severity": "Medium",
      "scanner": {
        "id": "semgrep",
        "name": "Semgrep"
      },
      "location": {
        "file": "app2/hardcoded/hardcoded-passwords.py",
        "start_line": 1,
        "end_line": 2
      },
      "identifiers": [
        {
          "type": "semgrep_id",
          "name": "bandit.B107",
          "value": "bandit.B107",
          "url": "https://semgrep.dev/r/gitlab.bandit.B107"
        },
        {
          "type": "cwe",
          "name": "CWE-259",
          "value": "259",
          "url": "https://cwe.mitre.org/data/definitions/259.html"
        },
        {
          "type": "owasp",
          "name": "A3 - Broken Authentication and Session Management",
          "value": "A3"
        },
        {
          "type": "bandit_test_id",
          "name": "Bandit Test ID B107",
          "value": "B107"
        }
      ],
      "tracking": {
        "type": "source",
        "items": [
          {
            "file": "app2/hardcoded/hardcoded-passwords.py",
            "line_start": 1,
            "line_end": 1,
            "signatures": [
              {
                "algorithm": "scope_offset",
                "value": "app2/hardcoded/hardcoded-passwords.py|someFunction[0]:0"
              }
            ]
          }
        ]
      }
    },
    {
      "id": "61fbe1404ed492595068247d19f26b2f47bdddb88b00215a90535b2538f68e36",
      "category": "sast",
      "message": "Use of Hard-coded Password",
      "description": "Possible hardcoded password\n",
      "cve": "semgrep_id:bandit.B105:13:13",
      "severity": "Info",
      "scanner": {
        "id": "semgrep",
        "name": "Semgrep"
      },
      "location": {
        "file": "app2/hardcoded/hardcoded-passwords.py",
        "start_line": 13
      },
      "identifiers": [
        {
          "type": "semgrep_id",
          "name": "bandit.B105",
          "value": "bandit.B105",
          "url": "https://semgrep.dev/r/gitlab.bandit.B105"
        },
        {
          "type": "cwe",
          "name": "CWE-259",
          "value": "259",
          "url": "https://cwe.mitre.org/data/definitions/259.html"
        },
        {
          "type": "owasp",
          "name": "A3 - Broken Authentication and Session Management",
          "value": "A3"
        },
        {
          "type": "bandit_test_id",
          "name": "Bandit Test ID B105",
          "value": "B105"
        }
      ],
      "tracking": {
        "type": "source",
        "items": [
          {
            "file": "app2/hardcoded/hardcoded-passwords.py",
            "line_start": 13,
            "line_end": 13,
            "signatures": [
              {
                "algorithm": "scope_offset",
                "value": "app2/hardcoded/hardcoded-passwords.py|NoMatch2[0]:1"
              }
            ]
          }
        ]
      }
    },
    {
      "id": "66df95d1acfa8bbd8523f667c9dfc1d8050179a8a7a0f560aebace6deb0d3976",
      "category": "sast",
      "message": "Use of Hard-coded Password",
      "description": "Possible hardcoded password\n",
      "cve": "semgrep_id:bandit.B105:23:23",
      "severity": "Info",
      "scanner": {
        "id": "semgrep",
        "name": "Semgrep"
      },
      "location": {
        "file": "app2/hardcoded/hardcoded-passwords.py",
        "start_line": 23
      },
      "identifiers": [
        {
          "type": "semgrep_id",
          "name": "bandit.B105",
          "value": "bandit.B105",
          "url": "https://semgrep.dev/r/gitlab.bandit.B105"
        },
        {
          "type": "cwe",
          "name": "CWE-259",
          "value": "259",
          "url": "https://cwe.mitre.org/data/definitions/259.html"
        },
        {
          "type": "owasp",
          "name": "A3 - Broken Authentication and Session Management",
          "value": "A3"
        },
        {
          "type": "bandit_test_id",
          "name": "Bandit Test ID B105",
          "value": "B105"
        }
      ]
    },
    {
      "id": "744be94027728a10d4d6182b08e6380947897071ac32c5b345a12631605abd2d",
      "category": "sast",
      "message": "Use of Hard-coded Password",
      "description": "Possible hardcoded password\n",
      "cve": "semgrep_id:bandit.B105:5:5",
      "severity": "Info",
      "scanner": {
        "id": "semgrep",
        "name": "Semgrep"
      },
      "location": {
        "file": "app2/hardcoded/hardcoded-passwords.py",
        "start_line": 5
      },
      "identifiers": [
        {
          "type": "semgrep_id",
          "name": "bandit.B105",
          "value": "bandit.B105",
          "url": "https://semgrep.dev/r/gitlab.bandit.B105"
        },
        {
          "type": "cwe",
          "name": "CWE-259",
          "value": "259",
          "url": "https://cwe.mitre.org/data/definitions/259.html"
        },
        {
          "type": "owasp",
          "name": "A3 - Broken Authentication and Session Management",
          "value": "A3"
        },
        {
          "type": "bandit_test_id",
          "name": "Bandit Test ID B105",
          "value": "B105"
        }
      ],
      "tracking": {
        "type": "source",
        "items": [
          {
            "file": "app2/hardcoded/hardcoded-passwords.py",
            "line_start": 5,
            "line_end": 5,
            "signatures": [
              {
                "algorithm": "scope_offset",
                "value": "app2/hardcoded/hardcoded-passwords.py|someFunction2[0]:1"
              }
            ]
          }
        ]
      }
    },
    {
      "id": "c6fe99d07ac4944adc32cb43a592e57a5a93fc436e0686aa8aa62522f6ba575c",
      "category": "sast",
      "message": "Use of Hard-coded Password",
      "description": "Possible hardcoded password\n",
      "cve": "semgrep_id:bandit.B105:9:9",
      "severity": "Info",
      "scanner": {
        "id": "semgrep",
        "name": "Semgrep"
      },
      "location": {
        "file": "app2/hardcoded/hardcoded-passwords.py",
        "start_line": 9
      },
      "identifiers": [
        {
          "type": "semgrep_id",
          "name": "bandit.B105",
          "value": "bandit.B105",
          "url": "https://semgrep.dev/r/gitlab.bandit.B105"
        },
        {
          "type": "cwe",
          "name": "CWE-259",
          "value": "259",
          "url": "https://cwe.mitre.org/data/definitions/259.html"
        },
        {
          "type": "owasp",
          "name": "A3 - Broken Authentication and Session Management",
          "value": "A3"
        },
        {
          "type": "bandit_test_id",
          "name": "Bandit Test ID B105",
          "value": "B105"
        }
      ],
      "tracking": {
        "type": "source",
        "items": [
          {
            "file": "app2/hardcoded/hardcoded-passwords.py",
            "line_start": 9,
            "line_end": 9,
            "signatures": [
              {
                "algorithm": "scope_offset",
                "value": "app2/hardcoded/hardcoded-passwords.py|noMatch[0]:1"
              }
            ]
          }
        ]
      }
    },
    {
      "id": "8a072d73e8853501e5ef6dc53bb8d8e3524e3e5ca519794dd1b944f0ff8d2ef6",
      "category": "sast",
      "message": "Use of Hard-coded Password",
      "description": "Possible hardcoded password\n",
      "cve": "semgrep_id:bandit.B106:22:22",
      "severity": "Info",
      "scanner": {
        "id": "semgrep",
        "name": "Semgrep"
      },
      "location": {
        "file": "app2/hardcoded/hardcoded-passwords.py",
        "start_line": 22
      },
      "identifiers": [
        {
          "type": "semgrep_id",
          "name": "bandit.B106",
          "value": "bandit.B106",
          "url": "https://semgrep.dev/r/gitlab.bandit.B106"
        },
        {
          "type": "cwe",
          "name": "CWE-259",
          "value": "259",
          "url": "https://cwe.mitre.org/data/definitions/259.html"
        },
        {
          "type": "owasp",
          "name": "A3 - Broken Authentication and Session Management",
          "value": "A3"
        },
        {
          "type": "bandit_test_id",
          "name": "Bandit Test ID B106",
          "value": "B106"
        }
      ]
    },
    {
      "id": "0b9f128431ce660d3cc3d0cd129124efba683330896a5c726bd46fcefdf66f86",
      "category": "sast",
      "message": "Insecure Temporary File",
      "description": "Probable insecure usage of temp file/directory.\n",
      "cve": "semgrep_id:bandit.B108-2:10:10",
      "severity": "Medium",
      "scanner": {
        "id": "semgrep",
        "name": "Semgrep"
      },
      "location": {
        "file": "app2/hardcoded/hardcoded-tmp.py",
        "start_line": 10
      },
      "identifiers": [
        {
          "type": "semgrep_id",
          "name": "bandit.B108-2",
          "value": "bandit.B108-2",
          "url": "https://semgrep.dev/r/gitlab.bandit.B108-2"
        },
        {
          "type": "cwe",
          "name": "CWE-377",
          "value": "377",
          "url": "https://cwe.mitre.org/data/definitions/377.html"
        },
        {
          "type": "bandit_test_id",
          "name": "Bandit Test ID B108",
          "value": "B108"
        }
      ]
    },
    {
      "id": "f06b7e49f67c017843154379a1ffe426278953298ccdc9de954fc0c534f9db46",
      "category": "sast",
      "message": "Insecure Temporary File",
      "description": "Probable insecure usage of temp file/directory.\n",
      "cve": "semgrep_id:bandit.B108-2:14:14",
      "severity": "Medium",
      "scanner": {
        "id": "semgrep",
        "name": "Semgrep"
      },
      "location": {
        "file": "app2/hardcoded/hardcoded-tmp.py",
        "start_line": 14
      },
      "identifiers": [
        {
          "type": "semgrep_id",
          "name": "bandit.B108-2",
          "value": "bandit.B108-2",
          "url": "https://semgrep.dev/r/gitlab.bandit.B108-2"
        },
        {
          "type": "cwe",
          "name": "CWE-377",
          "value": "377",
          "url": "https://cwe.mitre.org/data/definitions/377.html"
        },
        {
          "type": "bandit_test_id",
          "name": "Bandit Test ID B108",
          "value": "B108"
        }
      ]
    },
    {
      "id": "f2c020b4a911a3356d4604daaa6035b7601d8b36fd1c93259ea9b909e8e3d20b",
      "category": "sast",
      "message": "Insecure Temporary File",
      "description": "Probable insecure usage of temp file/directory.\n",
      "cve": "semgrep_id:bandit.B108-2:1:1",
      "severity": "Medium",
      "scanner": {
        "id": "semgrep",
        "name": "Semgrep"
      },
      "location": {
        "file": "app2/hardcoded/hardcoded-tmp.py",
        "start_line": 1
      },
      "identifiers": [
        {
          "type": "semgrep_id",
          "name": "bandit.B108-2",
          "value": "bandit.B108-2",
          "url": "https://semgrep.dev/r/gitlab.bandit.B108-2"
        },
        {
          "type": "cwe",
          "name": "CWE-377",
          "value": "377",
          "url": "https://cwe.mitre.org/data/definitions/377.html"
        },
        {
          "type": "bandit_test_id",
          "name": "Bandit Test ID B108",
          "value": "B108"
        }
      ]
    },
    {
      "id": "b29c9ccf613b94b09a60ffd9aca9497779a7f933bf0d24b48a23f332b60a2e06",
      "category": "sast",
      "message": "Insecure Temporary File",
      "description": "Detected hardcoded temp directory. Consider using 'tempfile.TemporaryFile' instead.\n",
      "cve": "semgrep_id:bandit.B108:1:1",
      "severity": "Medium",
      "scanner": {
        "id": "semgrep",
        "name": "Semgrep"
      },
      "location": {
        "file": "app2/hardcoded/hardcoded-tmp.py",
        "start_line": 1
      },
      "identifiers": [
        {
          "type": "semgrep_id",
          "name": "bandit.B108",
          "value": "bandit.B108",
          "url": "https://semgrep.dev/r/gitlab.bandit.B108"
        },
        {
          "type": "cwe",
          "name": "CWE-377",
          "value": "377",
          "url": "https://cwe.mitre.org/data/definitions/377.html"
        },
        {
          "type": "bandit_test_id",
          "name": "Bandit Test ID B108",
          "value": "B108"
        }
      ]
    },
    {
      "id": "7e92d15995ef095afb5aa2e7da5e6252e89e807868665156e3e27097c60ebab9",
      "category": "sast",
      "message": "Improper Neutralization of Special Elements used in an OS Command ('OS Command Injection')",
      "description": "Found 'subprocess' function 'pop' with 'shell=True'. This is dangerous because this call will spawn\nthe command using a shell process. Doing so propagates current shell settings and variables, which\nmakes it much easier for a malicious actor to execute commands. Use 'shell=False' instead.\n",
      "cve": "semgrep_id:bandit.B602:9:9",
      "severity": "Critical",
      "scanner": {
        "id": "semgrep",
        "name": "Semgrep"
      },
      "location": {
        "file": "app2/imports/imports-aliases.py",
        "start_line": 9
      },
      "identifiers": [
        {
          "type": "semgrep_id",
          "name": "bandit.B602",
          "value": "bandit.B602",
          "url": "https://semgrep.dev/r/gitlab.bandit.B602"
        },
        {
          "type": "cwe",
          "name": "CWE-78",
          "value": "78",
          "url": "https://cwe.mitre.org/data/definitions/78.html"
        },
        {
          "type": "owasp",
          "name": "A1 - Injection",
          "value": "A1"
        },
        {
          "type": "bandit_test_id",
          "name": "Bandit Test ID B602",
          "value": "B602"
        }
      ]
    },
    {
      "id": "89b9d54178e741901034dee7b7a1185d216a8272578fe5e731c548e66f5b77ac",
      "category": "sast",
      "message": "Deserialization of Untrusted Data",
      "description": "Avoid using `pickle`, which is known to lead to code execution vulnerabilities.\nWhen unpickling, the serialized data could be manipulated to run arbitrary code.\nInstead, consider serializing the relevant data as JSON or a similar text-based\nserialization format.\n",
      "cve": "semgrep_id:bandit.B301-1:15:15",
      "severity": "Medium",
      "scanner": {
        "id": "semgrep",
        "name": "Semgrep"
      },
      "location": {
        "file": "app2/imports/imports-aliases.py",
        "start_line": 15
      },
      "identifiers": [
        {
          "type": "semgrep_id",
          "name": "bandit.B301-1",
          "value": "bandit.B301-1",
          "url": "https://semgrep.dev/r/gitlab.bandit.B301-1"
        },
        {
          "type": "cwe",
          "name": "CWE-502",
          "value": "502",
          "url": "https://cwe.mitre.org/data/definitions/502.html"
        },
        {
          "type": "owasp",
          "name": "A8 - Insecure Deserialization",
          "value": "A8"
        },
        {
          "type": "bandit_test_id",
          "name": "Bandit Test ID B301-1",
          "value": "B301-1"
        }
      ]
    },
    {
      "id": "78398fcaef06ba4f0479ac2e502764e90071c63a34100dd887839cb79c9de72e",
      "category": "sast",
      "message": "Use of a Broken or Risky Cryptographic Algorithm",
      "description": "Detected MD5 hash algorithm which is considered insecure. MD5 is not\ncollision resistant and is therefore not suitable as a cryptographic\nsignature. Use SHA256 or SHA3 instead.\n",
      "cve": "semgrep_id:bandit.B303-1:11:11",
      "severity": "Medium",
      "scanner": {
        "id": "semgrep",
        "name": "Semgrep"
      },
      "location": {
        "file": "app2/imports/imports-aliases.py",
        "start_line": 11
      },
      "identifiers": [
        {
          "type": "semgrep_id",
          "name": "bandit.B303-1",
          "value": "bandit.B303-1",
          "url": "https://semgrep.dev/r/gitlab.bandit.B303-1"
        },
        {
          "type": "cwe",
          "name": "CWE-327",
          "value": "327",
          "url": "https://cwe.mitre.org/data/definitions/327.html"
        },
        {
          "type": "owasp",
          "name": "A3 - Sensitive Data Exposure",
          "value": "A3"
        },
        {
          "type": "bandit_test_id",
          "name": "Bandit Test ID B303",
          "value": "B303"
        }
      ]
    },
    {
      "id": "d6a4f880d71d871d09cbe251dbe09d8d1ffe3f1d597092b1279f0317c8fd0c54",
      "category": "sast",
      "message": "Use of a Broken or Risky Cryptographic Algorithm",
      "description": "Detected MD5 hash algorithm which is considered insecure. MD5 is not\ncollision resistant and is therefore not suitable as a cryptographic\nsignature. Use SHA256 or SHA3 instead.\n",
      "cve": "semgrep_id:bandit.B303-1:12:12",
      "severity": "Medium",
      "scanner": {
        "id": "semgrep",
        "name": "Semgrep"
      },
      "location": {
        "file": "app2/imports/imports-aliases.py",
        "start_line": 12
      },
      "identifiers": [
        {
          "type": "semgrep_id",
          "name": "bandit.B303-1",
          "value": "bandit.B303-1",
          "url": "https://semgrep.dev/r/gitlab.bandit.B303-1"
        },
        {
          "type": "cwe",
          "name": "CWE-327",
          "value": "327",
          "url": "https://cwe.mitre.org/data/definitions/327.html"
        },
        {
          "type": "owasp",
          "name": "A3 - Sensitive Data Exposure",
          "value": "A3"
        },
        {
          "type": "bandit_test_id",
          "name": "Bandit Test ID B303",
          "value": "B303"
        }
      ]
    },
    {
      "id": "ba73223e467fb209507bd431f26b00d1582d1e06775ff052fedb29cc7dba830f",
      "category": "sast",
      "message": "Use of a Broken or Risky Cryptographic Algorithm",
      "description": "Detected MD5 hash algorithm which is considered insecure. MD5 is not\ncollision resistant and is therefore not suitable as a cryptographic\nsignature. Use SHA256 or SHA3 instead.\n",
      "cve": "semgrep_id:bandit.B303-1:13:13",
      "severity": "Medium",
      "scanner": {
        "id": "semgrep",
        "name": "Semgrep"
      },
      "location": {
        "file": "app2/imports/imports-aliases.py",
        "start_line": 13
      },
      "identifiers": [
        {
          "type": "semgrep_id",
          "name": "bandit.B303-1",
          "value": "bandit.B303-1",
          "url": "https://semgrep.dev/r/gitlab.bandit.B303-1"
        },
        {
          "type": "cwe",
          "name": "CWE-327",
          "value": "327",
          "url": "https://cwe.mitre.org/data/definitions/327.html"
        },
        {
          "type": "owasp",
          "name": "A3 - Sensitive Data Exposure",
          "value": "A3"
        },
        {
          "type": "bandit_test_id",
          "name": "Bandit Test ID B303",
          "value": "B303"
        }
      ]
    },
    {
      "id": "0b574522aca555c0f081fdf8ba640ee8f91793ea8113e0f4e45c6afa38ef7052",
      "category": "sast",
      "message": "Use of a Broken or Risky Cryptographic Algorithm",
      "description": "Detected MD5 hash algorithm which is considered insecure. MD5 is not\ncollision resistant and is therefore not suitable as a cryptographic\nsignature. Use SHA256 or SHA3 instead.\n",
      "cve": "semgrep_id:bandit.B303-1:14:14",
      "severity": "Medium",
      "scanner": {
        "id": "semgrep",
        "name": "Semgrep"
      },
      "location": {
        "file": "app2/imports/imports-aliases.py",
        "start_line": 14
      },
      "identifiers": [
        {
          "type": "semgrep_id",
          "name": "bandit.B303-1",
          "value": "bandit.B303-1",
          "url": "https://semgrep.dev/r/gitlab.bandit.B303-1"
        },
        {
          "type": "cwe",
          "name": "CWE-327",
          "value": "327",
          "url": "https://cwe.mitre.org/data/definitions/327.html"
        },
        {
          "type": "owasp",
          "name": "A3 - Sensitive Data Exposure",
          "value": "A3"
        },
        {
          "type": "bandit_test_id",
          "name": "Bandit Test ID B303",
          "value": "B303"
        }
      ]
    },
    {
      "id": "43d2d453dd31eb77eabe8f75351f1a733efcb3bb7ec90fb6cf8b0d7e026dd64b",
      "category": "sast",
      "message": "Improper Neutralization of Special Elements used in an OS Command ('OS Command Injection')",
      "description": "Consider possible security implications associated with subprocess module.\n",
      "cve": "semgrep_id:bandit.B404:1:1",
      "severity": "Medium",
      "scanner": {
        "id": "semgrep",
        "name": "Semgrep"
      },
      "location": {
        "file": "app2/imports/imports-aliases.py",
        "start_line": 1
      },
      "identifiers": [
        {
          "type": "semgrep_id",
          "name": "bandit.B404",
          "value": "bandit.B404",
          "url": "https://semgrep.dev/r/gitlab.bandit.B404"
        },
        {
          "type": "cwe",
          "name": "CWE-78",
          "value": "78",
          "url": "https://cwe.mitre.org/data/definitions/78.html"
        },
        {
          "type": "owasp",
          "name": "A8 - Insecure Deserialization",
          "value": "A8"
        },
        {
          "type": "bandit_test_id",
          "name": "Bandit Test ID B404",
          "value": "B404"
        }
      ]
    },
    {
      "id": "2373c420cfbe0f179d816d249b08cd57e79953334b47b1488b08d519156995b0",
      "category": "sast",
      "message": "Deserialization of Untrusted Data",
      "description": "Consider possible security implications associated with pickle module.\n",
      "cve": "semgrep_id:bandit.B403:6:6",
      "severity": "Info",
      "scanner": {
        "id": "semgrep",
        "name": "Semgrep"
      },
      "location": {
        "file": "app2/imports/imports-aliases.py",
        "start_line": 6
      },
      "identifiers": [
        {
          "type": "semgrep_id",
          "name": "bandit.B403",
          "value": "bandit.B403",
          "url": "https://semgrep.dev/r/gitlab.bandit.B403"
        },
        {
          "type": "cwe",
          "name": "CWE-502",
          "value": "502",
          "url": "https://cwe.mitre.org/data/definitions/502.html"
        },
        {
          "type": "owasp",
          "name": "A8 - Insecure Deserialization",
          "value": "A8"
        },
        {
          "type": "bandit_test_id",
          "name": "Bandit Test ID B403",
          "value": "B403"
        }
      ]
    },
    {
      "id": "ce277132c9b2de1d00edc6ed88de06966063817686b090c59a1ed4ee140fa514",
      "category": "sast",
      "message": "Deserialization of Untrusted Data",
      "description": "Consider possible security implications associated with pickle module.\n",
      "cve": "semgrep_id:bandit.B403:7:7",
      "severity": "Info",
      "scanner": {
        "id": "semgrep",
        "name": "Semgrep"
      },
      "location": {
        "file": "app2/imports/imports-aliases.py",
        "start_line": 7
      },
      "identifiers": [
        {
          "type": "semgrep_id",
          "name": "bandit.B403",
          "value": "bandit.B403",
          "url": "https://semgrep.dev/r/gitlab.bandit.B403"
        },
        {
          "type": "cwe",
          "name": "CWE-502",
          "value": "502",
          "url": "https://cwe.mitre.org/data/definitions/502.html"
        },
        {
          "type": "owasp",
          "name": "A8 - Insecure Deserialization",
          "value": "A8"
        },
        {
          "type": "bandit_test_id",
          "name": "Bandit Test ID B403",
          "value": "B403"
        }
      ]
    },
    {
      "id": "50bdcedc8f923d141ac21753c1f220bc4f0906e7d8bc34d89e4ecea0dc31c7b1",
      "category": "sast",
      "message": "Improper Neutralization of Special Elements used in an OS Command ('OS Command Injection')",
      "description": "Consider possible security implications associated with subprocess module.\n",
      "cve": "semgrep_id:bandit.B404:1:1",
      "severity": "Medium",
      "scanner": {
        "id": "semgrep",
        "name": "Semgrep"
      },
      "location": {
        "file": "app2/imports/imports-from.py",
        "start_line": 1
      },
      "identifiers": [
        {
          "type": "semgrep_id",
          "name": "bandit.B404",
          "value": "bandit.B404",
          "url": "https://semgrep.dev/r/gitlab.bandit.B404"
        },
        {
          "type": "cwe",
          "name": "CWE-78",
          "value": "78",
          "url": "https://cwe.mitre.org/data/definitions/78.html"
        },
        {
          "type": "owasp",
          "name": "A8 - Insecure Deserialization",
          "value": "A8"
        },
        {
          "type": "bandit_test_id",
          "name": "Bandit Test ID B404",
          "value": "B404"
        }
      ]
    },
    {
      "id": "1a10f329acc824e82a0647cc1cb61a66e6f181d1bed8d76762345b60142e3992",
      "category": "sast",
      "message": "Improper Neutralization of Special Elements used in an OS Command ('OS Command Injection')",
      "description": "Consider possible security implications associated with subprocess module.\n",
      "cve": "semgrep_id:bandit.B404:4:4",
      "severity": "Medium",
      "scanner": {
        "id": "semgrep",
        "name": "Semgrep"
      },
      "location": {
        "file": "app2/imports/imports.py",
        "start_line": 4
      },
      "identifiers": [
        {
          "type": "semgrep_id",
          "name": "bandit.B404",
          "value": "bandit.B404",
          "url": "https://semgrep.dev/r/gitlab.bandit.B404"
        },
        {
          "type": "cwe",
          "name": "CWE-78",
          "value": "78",
          "url": "https://cwe.mitre.org/data/definitions/78.html"
        },
        {
          "type": "owasp",
          "name": "A8 - Insecure Deserialization",
          "value": "A8"
        },
        {
          "type": "bandit_test_id",
          "name": "Bandit Test ID B404",
          "value": "B404"
        }
      ]
    },
    {
      "id": "d9e2752e5e47a12072523dad1a0a730985740889378192a8fcf0d58384ee922d",
      "category": "sast",
      "message": "Deserialization of Untrusted Data",
      "description": "Consider possible security implications associated with pickle module.\n",
      "cve": "semgrep_id:bandit.B403:2:2",
      "severity": "Info",
      "scanner": {
        "id": "semgrep",
        "name": "Semgrep"
      },
      "location": {
        "file": "app2/imports/imports.py",
        "start_line": 2
      },
      "identifiers": [
        {
          "type": "semgrep_id",
          "name": "bandit.B403",
          "value": "bandit.B403",
          "url": "https://semgrep.dev/r/gitlab.bandit.B403"
        },
        {
          "type": "cwe",
          "name": "CWE-502",
          "value": "502",
          "url": "https://cwe.mitre.org/data/definitions/502.html"
        },
        {
          "type": "owasp",
          "name": "A8 - Insecure Deserialization",
          "value": "A8"
        },
        {
          "type": "bandit_test_id",
          "name": "Bandit Test ID B403",
          "value": "B403"
        }
      ]
    },
    {
      "id": "3fe82ffc40975a01e3023eced381399a072f8bc5fe012d8bd837c9b96a872eee",
      "category": "sast",
      "message": "Improper Check for Unusual or Exceptional Conditions",
      "description": "Use of assert detected. The enclosed code will be removed when\ncompiling to optimised byte code.\n",
      "cve": "semgrep_id:bandit.B101:7:7",
      "severity": "Info",
      "scanner": {
        "id": "semgrep",
        "name": "Semgrep"
      },
      "location": {
        "file": "tests/test_simple.py",
        "start_line": 7
      },
      "identifiers": [
        {
          "type": "semgrep_id",
          "name": "bandit.B101",
          "value": "bandit.B101",
          "url": "https://semgrep.dev/r/gitlab.bandit.B101"
        },
        {
          "type": "cwe",
          "name": "CWE-754",
          "value": "754",
          "url": "https://cwe.mitre.org/data/definitions/754.html"
        },
        {
          "type": "bandit_test_id",
          "name": "Bandit Test ID B101",
          "value": "B101"
        }
      ],
      "tracking": {
        "type": "source",
        "items": [
          {
            "file": "tests/test_simple.py",
            "line_start": 7,
            "line_end": 7,
            "signatures": [
              {
                "algorithm": "scope_offset",
                "value": "tests/test_simple.py|test_success[0]:1"
              }
            ]
          }
        ]
      }
    }
  ],
  "dependency_files": [],
  "scan": {
    "analyzer": {
      "id": "semgrep",
      "name": "Semgrep",
      "url": "https://gitlab.com/gitlab-org/security-products/analyzers/semgrep",
      "vendor": {
        "name": "GitLab"
      },
      "version": "3.13.0"
    },
    "scanner": {
      "id": "semgrep",
      "name": "Semgrep",
      "url": "https://github.com/returntocorp/semgrep",
      "vendor": {
        "name": "GitLab"
      },
      "version": "1.3.0"
    },
    "type": "sast",
    "start_time": "2023-02-02T20:04:41",
    "end_time": "2023-02-02T20:04:51",
    "status": "success"
  }
}
