{
  "version": "14.0.4",
  "vulnerabilities": [
    {
      "id": "53a67689e6466f55e101d52ecba7db0d74f70975d8fb9bfe09a6a5c9cf19d568",
      "category": "sast",
      "message": "Improper Neutralization of Directives in Dynamically Evaluated Code ('Eval Injection')",
      "description": "Detected eval(variable), which could allow a malicious actor to run arbitrary code.\n",
      "cve": "semgrep_id:eslint.detect-eval-with-expression:47:47",
      "severity": "Medium",
      "scanner": {
        "id": "semgrep",
        "name": "Semgrep"
      },
      "location": {
        "file": "src/app.ts",
        "start_line": 47
      },
      "identifiers": [
        {
          "type": "semgrep_id",
          "name": "eslint.detect-eval-with-expression",
          "value": "eslint.detect-eval-with-expression",
          "url": "https://semgrep.dev/r/gitlab.eslint.detect-eval-with-expression"
        },
        {
          "type": "cwe",
          "name": "CWE-95",
          "value": "95",
          "url": "https://cwe.mitre.org/data/definitions/95.html"
        },
        {
          "type": "owasp",
          "name": "A1 - Injection",
          "value": "A1"
        },
        {
          "type": "eslint_rule_id",
          "name": "ESLint rule ID security/detect-eval-with-expression",
          "value": "security/detect-eval-with-expression"
        }
      ]
    },
    {
      "id": "c78d291c26a2de956a69ce834aaf41406453f8aa46857646ddec77b450ffca20",
      "category": "sast",
      "message": "Incorrect Regular Expression",
      "description": "RegExp() called with a variable, this might allow an attacker to DOS your application with a long-running regular expression.\n",
      "cve": "semgrep_id:eslint.detect-non-literal-regexp:34:34",
      "severity": "Medium",
      "scanner": {
        "id": "semgrep",
        "name": "Semgrep"
      },
      "location": {
        "file": "src/app.ts",
        "start_line": 34
      },
      "identifiers": [
        {
          "type": "semgrep_id",
          "name": "eslint.detect-non-literal-regexp",
          "value": "eslint.detect-non-literal-regexp",
          "url": "https://semgrep.dev/r/gitlab.eslint.detect-non-literal-regexp"
        },
        {
          "type": "cwe",
          "name": "CWE-185",
          "value": "185",
          "url": "https://cwe.mitre.org/data/definitions/185.html"
        },
        {
          "type": "eslint_rule_id",
          "name": "ESLint rule ID security/detect-non-literal-regexp",
          "value": "security/detect-non-literal-regexp"
        }
      ]
    },
    {
      "id": "1936f57210be7417cf31a1fc2846713f359f60b1f37bcf57d4f066b86374466c",
      "category": "sast",
      "message": "Use of Cryptographically Weak Pseudo-Random Number Generator (PRNG)",
      "description": "Detected usage of crypto.pseudoRandomBytes, which does not produce secure random numbers.\n",
      "cve": "semgrep_id:eslint.detect-pseudoRandomBytes:41:41",
      "severity": "Medium",
      "scanner": {
        "id": "semgrep",
        "name": "Semgrep"
      },
      "location": {
        "file": "src/app.ts",
        "start_line": 41
      },
      "identifiers": [
        {
          "type": "semgrep_id",
          "name": "eslint.detect-pseudoRandomBytes",
          "value": "eslint.detect-pseudoRandomBytes",
          "url": "https://semgrep.dev/r/gitlab.eslint.detect-pseudoRandomBytes"
        },
        {
          "type": "cwe",
          "name": "CWE-338",
          "value": "338",
          "url": "https://cwe.mitre.org/data/definitions/338.html"
        },
        {
          "type": "eslint_rule_id",
          "name": "ESLint rule ID security/detect-pseudoRandomBytes",
          "value": "security/detect-pseudoRandomBytes"
        }
      ]
    }
  ],
  "dependency_files": [],
  "scan": {
    "analyzer": {
      "id": "semgrep",
      "name": "Semgrep",
      "url": "https://gitlab.com/gitlab-org/security-products/analyzers/semgrep",
      "vendor": {
        "name": "GitLab"
      },
      "version": "3.12.0"
    },
    "scanner": {
      "id": "semgrep",
      "name": "Semgrep",
      "url": "https://github.com/returntocorp/semgrep",
      "vendor": {
        "name": "GitLab"
      },
      "version": "1.3.0"
    },
    "type": "sast",
    "start_time": "2023-01-18T21:59:25",
    "end_time": "2023-01-18T21:59:33",
    "status": "success"
  }
}
