{
  "version": "14.0.4",
  "vulnerabilities": [
    {
      "id": "31261040d0485b23adf8ccb6334d3312f45e6f7a33afec7898f43c546ee91579",
      "category": "sast",
      "message": "Missing Support for Integrity Check",
      "description": "The ciphertext produced is susceptible to alteration by an adversary. This mean that the\ncipher provides no way to detect that the data has been tampered with. If the ciphertext can be\ncontrolled by an attacker, it could be altered without detection.\n",
      "cve": "semgrep_id:find_sec_bugs.CIPHER_INTEGRITY-1:29:29",
      "severity": "Critical",
      "scanner": {
        "id": "semgrep",
        "name": "Semgrep"
      },
      "location": {
        "file": "src/main/java/com/gitlab/security_products/tests/App.java",
        "start_line": 29
      },
      "identifiers": [
        {
          "type": "semgrep_id",
          "name": "find_sec_bugs.CIPHER_INTEGRITY-1",
          "value": "find_sec_bugs.CIPHER_INTEGRITY-1"
        },
        {
          "type": "cwe",
          "name": "CWE-353",
          "value": "353",
          "url": "https://cwe.mitre.org/data/definitions/353.html"
        },
        {
          "type": "find_sec_bugs_type",
          "name": "Find Security Bugs-CIPHER_INTEGRITY",
          "value": "CIPHER_INTEGRITY"
        }
      ],
      "tracking": {
        "type": "source",
        "items": [
          {
            "file": "src/main/java/com/gitlab/security_products/tests/App.java",
            "line_start": 29,
            "line_end": 29,
            "signatures": [
              {
                "algorithm": "scope_offset",
                "value": "src/main/java/com/gitlab/security_products/tests/App.java|App[0]|insecureCypher[0]:2"
              }
            ]
          }
        ]
      }
    },
    {
      "id": "c39d1a6ed947407ea592c3466749d5fdee341041d060e2b78237cbc5594898a4",
      "category": "sast",
      "message": "Inadequate Encryption Strength",
      "description": "An authentication cipher mode which provides better confidentiality of the encrypted data\nshould be used instead of Electronic Code Book (ECB) mode, which does not provide good\nconfidentiality. Specifically, ECB mode produces the same output for the same input each time.\nThis allows an attacker to intercept and replay the data.\n",
      "cve": "semgrep_id:find_sec_bugs.ECB_MODE-1:29:29",
      "severity": "Critical",
      "scanner": {
        "id": "semgrep",
        "name": "Semgrep"
      },
      "location": {
        "file": "src/main/java/com/gitlab/security_products/tests/App.java",
        "start_line": 29
      },
      "identifiers": [
        {
          "type": "semgrep_id",
          "name": "find_sec_bugs.ECB_MODE-1",
          "value": "find_sec_bugs.ECB_MODE-1"
        },
        {
          "type": "cwe",
          "name": "CWE-326",
          "value": "326",
          "url": "https://cwe.mitre.org/data/definitions/326.html"
        },
        {
          "type": "find_sec_bugs_type",
          "name": "Find Security Bugs-ECB_MODE",
          "value": "ECB_MODE"
        }
      ],
      "tracking": {
        "type": "source",
        "items": [
          {
            "file": "src/main/java/com/gitlab/security_products/tests/App.java",
            "line_start": 29,
            "line_end": 29,
            "signatures": [
              {
                "algorithm": "scope_offset",
                "value": "src/main/java/com/gitlab/security_products/tests/App.java|App[0]|insecureCypher[0]:2"
              }
            ]
          }
        ]
      }
    },
    {
      "id": "9e45fa0a72d8292976452aaa9ac8e7769161ea23239afaf9973f237f451729aa",
      "category": "sast",
      "message": "Use of Insufficiently Random Values",
      "description": "The use of a predictable random value can lead to vulnerabilities when\nused in certain security critical contexts. A quick fix could be to replace\nthe use of java.util.Random with something stronger, such as java.security.SecureRandom.\n",
      "cve": "semgrep_id:find_sec_bugs.PREDICTABLE_RANDOM-1:41:42",
      "severity": "Medium",
      "scanner": {
        "id": "semgrep",
        "name": "Semgrep"
      },
      "location": {
        "file": "src/main/java/com/gitlab/security_products/tests/App.java",
        "start_line": 41,
        "end_line": 42
      },
      "identifiers": [
        {
          "type": "semgrep_id",
          "name": "find_sec_bugs.PREDICTABLE_RANDOM-1",
          "value": "find_sec_bugs.PREDICTABLE_RANDOM-1"
        },
        {
          "type": "cwe",
          "name": "CWE-330",
          "value": "330",
          "url": "https://cwe.mitre.org/data/definitions/330.html"
        },
        {
          "type": "find_sec_bugs_type",
          "name": "Find Security Bugs-PREDICTABLE_RANDOM",
          "value": "PREDICTABLE_RANDOM"
        }
      ],
      "tracking": {
        "type": "source",
        "items": [
          {
            "file": "src/main/java/com/gitlab/security_products/tests/App.java",
            "line_start": 41,
            "line_end": 41,
            "signatures": [
              {
                "algorithm": "scope_offset",
                "value": "src/main/java/com/gitlab/security_products/tests/App.java|App[0]|String[0]:1"
              }
            ]
          }
        ]
      }
    },
    {
      "id": "f4179c1c1bc62946c3f0dfa511c9deda63fdd2a39894737bbe4d3ed688aee1a1",
      "category": "sast",
      "message": "Use of Insufficiently Random Values",
      "description": "The use of a predictable random value can lead to vulnerabilities when\nused in certain security critical contexts. A quick fix could be to replace\nthe use of java.util.Random with something stronger, such as java.security.SecureRandom.\n",
      "cve": "semgrep_id:find_sec_bugs.PREDICTABLE_RANDOM-1:42:42",
      "severity": "Medium",
      "scanner": {
        "id": "semgrep",
        "name": "Semgrep"
      },
      "location": {
        "file": "src/main/java/com/gitlab/security_products/tests/App.java",
        "start_line": 42
      },
      "identifiers": [
        {
          "type": "semgrep_id",
          "name": "find_sec_bugs.PREDICTABLE_RANDOM-1",
          "value": "find_sec_bugs.PREDICTABLE_RANDOM-1"
        },
        {
          "type": "cwe",
          "name": "CWE-330",
          "value": "330",
          "url": "https://cwe.mitre.org/data/definitions/330.html"
        },
        {
          "type": "find_sec_bugs_type",
          "name": "Find Security Bugs-PREDICTABLE_RANDOM",
          "value": "PREDICTABLE_RANDOM"
        }
      ],
      "tracking": {
        "type": "source",
        "items": [
          {
            "file": "src/main/java/com/gitlab/security_products/tests/App.java",
            "line_start": 42,
            "line_end": 42,
            "signatures": [
              {
                "algorithm": "scope_offset",
                "value": "src/main/java/com/gitlab/security_products/tests/App.java|App[0]|String[0]:2"
              }
            ]
          }
        ]
      }
    },
    {
      "id": "dc6fafde88303887f0d0737c84ab26ada6395d8a41e6920938707637e1ad38a6",
      "category": "sast",
      "message": "Use of Insufficiently Random Values",
      "description": "The use of a predictable random value can lead to vulnerabilities when\nused in certain security critical contexts. A quick fix could be to replace\nthe use of java.util.Random with something stronger, such as java.security.SecureRandom.\n",
      "cve": "semgrep_id:find_sec_bugs.PREDICTABLE_RANDOM-1:47:48",
      "severity": "Medium",
      "scanner": {
        "id": "semgrep",
        "name": "Semgrep"
      },
      "location": {
        "file": "src/main/java/com/gitlab/security_products/tests/App.java",
        "start_line": 47,
        "end_line": 48
      },
      "identifiers": [
        {
          "type": "semgrep_id",
          "name": "find_sec_bugs.PREDICTABLE_RANDOM-1",
          "value": "find_sec_bugs.PREDICTABLE_RANDOM-1"
        },
        {
          "type": "cwe",
          "name": "CWE-330",
          "value": "330",
          "url": "https://cwe.mitre.org/data/definitions/330.html"
        },
        {
          "type": "find_sec_bugs_type",
          "name": "Find Security Bugs-PREDICTABLE_RANDOM",
          "value": "PREDICTABLE_RANDOM"
        }
      ],
      "tracking": {
        "type": "source",
        "items": [
          {
            "file": "src/main/java/com/gitlab/security_products/tests/App.java",
            "line_start": 47,
            "line_end": 47,
            "signatures": [
              {
                "algorithm": "scope_offset",
                "value": "src/main/java/com/gitlab/security_products/tests/App.java|App[0]|String[1]:1"
              }
            ]
          }
        ]
      }
    },
    {
      "id": "7e44bbe9fbae6c545f71ccccb3c79d7580b6caca5fc969df48490b9f4d061037",
      "category": "sast",
      "message": "Use of Insufficiently Random Values",
      "description": "The use of a predictable random value can lead to vulnerabilities when\nused in certain security critical contexts. A quick fix could be to replace\nthe use of java.util.Random with something stronger, such as java.security.SecureRandom.\n",
      "cve": "semgrep_id:find_sec_bugs.PREDICTABLE_RANDOM-1:48:48",
      "severity": "Medium",
      "scanner": {
        "id": "semgrep",
        "name": "Semgrep"
      },
      "location": {
        "file": "src/main/java/com/gitlab/security_products/tests/App.java",
        "start_line": 48
      },
      "identifiers": [
        {
          "type": "semgrep_id",
          "name": "find_sec_bugs.PREDICTABLE_RANDOM-1",
          "value": "find_sec_bugs.PREDICTABLE_RANDOM-1"
        },
        {
          "type": "cwe",
          "name": "CWE-330",
          "value": "330",
          "url": "https://cwe.mitre.org/data/definitions/330.html"
        },
        {
          "type": "find_sec_bugs_type",
          "name": "Find Security Bugs-PREDICTABLE_RANDOM",
          "value": "PREDICTABLE_RANDOM"
        }
      ],
      "tracking": {
        "type": "source",
        "items": [
          {
            "file": "src/main/java/com/gitlab/security_products/tests/App.java",
            "line_start": 48,
            "line_end": 48,
            "signatures": [
              {
                "algorithm": "scope_offset",
                "value": "src/main/java/com/gitlab/security_products/tests/App.java|App[0]|String[1]:2"
              }
            ]
          }
        ]
      }
    },
    {
      "id": "66d9f9a572a064870f280fb28d78dc3ccd02592e6e3512308f2e7cb49f3e4915",
      "category": "sast",
      "message": "Use of RSA Algorithm without OAEP",
      "description": "The software uses the RSA algorithm but does not incorporate Optimal Asymmetric\nEncryption Padding (OAEP), which might weaken the encryption.\n",
      "cve": "semgrep_id:find_sec_bugs.RSA_NO_PADDING-1:29:29",
      "severity": "Medium",
      "scanner": {
        "id": "semgrep",
        "name": "Semgrep"
      },
      "location": {
        "file": "src/main/java/com/gitlab/security_products/tests/App.java",
        "start_line": 29
      },
      "identifiers": [
        {
          "type": "semgrep_id",
          "name": "find_sec_bugs.RSA_NO_PADDING-1",
          "value": "find_sec_bugs.RSA_NO_PADDING-1"
        },
        {
          "type": "cwe",
          "name": "CWE-780",
          "value": "780",
          "url": "https://cwe.mitre.org/data/definitions/780.html"
        },
        {
          "type": "find_sec_bugs_type",
          "name": "Find Security Bugs-RSA_NO_PADDING",
          "value": "RSA_NO_PADDING"
        }
      ],
      "tracking": {
        "type": "source",
        "items": [
          {
            "file": "src/main/java/com/gitlab/security_products/tests/App.java",
            "line_start": 29,
            "line_end": 29,
            "signatures": [
              {
                "algorithm": "scope_offset",
                "value": "src/main/java/com/gitlab/security_products/tests/App.java|App[0]|insecureCypher[0]:2"
              }
            ]
          }
        ]
      }
    }
  ],
  "dependency_files": [],
  "scan": {
    "analyzer": {
      "id": "semgrep",
      "name": "Semgrep",
      "url": "https://gitlab.com/gitlab-org/security-products/analyzers/semgrep",
      "vendor": {
        "name": "GitLab"
      },
      "version": "3.12.0"
    },
    "scanner": {
      "id": "semgrep",
      "name": "Semgrep",
      "url": "https://github.com/returntocorp/semgrep",
      "vendor": {
        "name": "GitLab"
      },
      "version": "1.3.0"
    },
    "type": "sast",
    "start_time": "2023-01-18T21:57:37",
    "end_time": "2023-01-18T21:57:47",
    "status": "success"
  }
}
