{
  "version": "14.0.4",
  "vulnerabilities": [
    {
      "id": "7331a4b7093875f6eb9f6eb1755b30cc792e9fb3a08c9ce673fb0d2207d7c9c9",
      "category": "sast",
      "message": "Key Exchange without Entity Authentication",
      "description": "Audit the use of ssh.InsecureIgnoreHostKey\n",
      "cve": "semgrep_id:gosec.G106-1:8:8",
      "severity": "Medium",
      "scanner": {
        "id": "semgrep",
        "name": "Semgrep"
      },
      "location": {
        "file": "foo.go",
        "start_line": 8
      },
      "identifiers": [
        {
          "type": "semgrep_id",
          "name": "gosec.G106-1",
          "value": "gosec.G106-1"
        },
        {
          "type": "cwe",
          "name": "CWE-322",
          "value": "322",
          "url": "https://cwe.mitre.org/data/definitions/322.html"
        },
        {
          "type": "gosec_rule_id",
          "name": "Gosec Rule ID G106",
          "value": "G106"
        }
      ]
    }
  ],
  "dependency_files": [],
  "scan": {
    "analyzer": {
      "id": "semgrep",
      "name": "Semgrep",
      "url": "https://gitlab.com/gitlab-org/security-products/analyzers/semgrep",
      "vendor": {
        "name": "GitLab"
      },
      "version": "3.8.0"
    },
    "scanner": {
      "id": "semgrep",
      "name": "Semgrep",
      "url": "https://github.com/returntocorp/semgrep",
      "vendor": {
        "name": "GitLab"
      },
      "version": "0.115.0"
    },
    "type": "sast",
    "start_time": "2022-10-28T02:39:37",
    "end_time": "2022-10-28T02:39:43",
    "status": "success"
  }
}
