{
  "version": "14.0.4",
  "vulnerabilities": [
    {
      "id": "bcd3784849b1f4a13b16bc17b4548c4dba9934aabcd3e77053420df1b1b531b0",
      "category": "sast",
      "message": "Improper Limitation of a Pathname to a Restricted Directory ('Path Traversal')",
      "description": "The software uses external input to construct a pathname that is intended\nto identify a file or directory that is located underneath a restricted\nparent directory, but the software does not properly neutralize special\nelements within the pathname that can cause the pathname to resolve to a\nlocation that is outside of the restricted directory..\n",
      "cve": "semgrep_id:security_code_scan.SCS0018-1:52:52",
      "severity": "Medium",
      "scanner": {
        "id": "semgrep",
        "name": "Semgrep"
      },
      "location": {
        "file": "WebApp/Controllers/HomeController.cs",
        "start_line": 52
      },
      "identifiers": [
        {
          "type": "semgrep_id",
          "name": "security_code_scan.SCS0018-1",
          "value": "security_code_scan.SCS0018-1"
        },
        {
          "type": "cwe",
          "name": "CWE-22",
          "value": "22",
          "url": "https://cwe.mitre.org/data/definitions/22.html"
        },
        {
          "type": "security_code_scan_rule_id",
          "name": "SCS0018",
          "value": "SCS0018"
        }
      ],
      "tracking": {
        "type": "source",
        "items": [
          {
            "file": "WebApp/Controllers/HomeController.cs",
            "line_start": 52,
            "line_end": 52,
            "signatures": [
              {
                "algorithm": "scope_offset",
                "value": "WebApp/Controllers/HomeController.cs|HomeController[0]|IActionResult[5]:2"
              }
            ]
          }
        ]
      }
    },
    {
      "id": "37468b42af9f7be6ef47fb4ba2e7ceba10795454a887980f3f75c0b80596a40e",
      "category": "sast",
      "message": "Incorrect Regular Expression",
      "description": "RegExp() called with a variable, this might allow an attacker to DOS your application with a long-running regular expression.\n",
      "cve": "semgrep_id:eslint.detect-non-literal-regexp:345:345",
      "severity": "Medium",
      "scanner": {
        "id": "semgrep",
        "name": "Semgrep"
      },
      "location": {
        "file": "WebApp/wwwroot/lib/jquery-validation-unobtrusive/jquery.validate.unobtrusive.js",
        "start_line": 345
      },
      "identifiers": [
        {
          "type": "semgrep_id",
          "name": "eslint.detect-non-literal-regexp",
          "value": "eslint.detect-non-literal-regexp",
          "url": "https://semgrep.dev/r/gitlab.eslint.detect-non-literal-regexp"
        },
        {
          "type": "cwe",
          "name": "CWE-185",
          "value": "185",
          "url": "https://cwe.mitre.org/data/definitions/185.html"
        },
        {
          "type": "eslint_rule_id",
          "name": "ESLint rule ID security/detect-non-literal-regexp",
          "value": "security/detect-non-literal-regexp"
        }
      ]
    },
    {
      "id": "129899030503e9444978613801670c5498682766909eda1f89b98a4fe3852748",
      "category": "sast",
      "message": "Improper Control of Generation of Code ('Code Injection')",
      "description": "Bracket object notation with user input is present, this might allow an attacker to access all properties of the object and even it's prototype, leading to possible code execution.",
      "cve": "semgrep_id:eslint.detect-object-injection:129:129",
      "severity": "Medium",
      "scanner": {
        "id": "semgrep",
        "name": "Semgrep"
      },
      "location": {
        "file": "WebApp/wwwroot/lib/jquery-validation-unobtrusive/jquery.validate.unobtrusive.js",
        "start_line": 129
      },
      "identifiers": [
        {
          "type": "semgrep_id",
          "name": "eslint.detect-object-injection",
          "value": "eslint.detect-object-injection",
          "url": "https://semgrep.dev/r/gitlab.eslint.detect-object-injection"
        },
        {
          "type": "cwe",
          "name": "CWE-94",
          "value": "94",
          "url": "https://cwe.mitre.org/data/definitions/94.html"
        },
        {
          "type": "eslint_rule_id",
          "name": "ESLint rule ID security/detect-object-injection",
          "value": "security/detect-object-injection"
        }
      ]
    },
    {
      "id": "360267c7968ab19687127ed2f1e94fc9f61df19f74e42d52fbd808a8a4ce51d6",
      "category": "sast",
      "message": "Improper Control of Generation of Code ('Code Injection')",
      "description": "Bracket object notation with user input is present, this might allow an attacker to access all properties of the object and even it's prototype, leading to possible code execution.",
      "cve": "semgrep_id:eslint.detect-object-injection:191:191",
      "severity": "Medium",
      "scanner": {
        "id": "semgrep",
        "name": "Semgrep"
      },
      "location": {
        "file": "WebApp/wwwroot/lib/jquery-validation-unobtrusive/jquery.validate.unobtrusive.js",
        "start_line": 191
      },
      "identifiers": [
        {
          "type": "semgrep_id",
          "name": "eslint.detect-object-injection",
          "value": "eslint.detect-object-injection",
          "url": "https://semgrep.dev/r/gitlab.eslint.detect-object-injection"
        },
        {
          "type": "cwe",
          "name": "CWE-94",
          "value": "94",
          "url": "https://cwe.mitre.org/data/definitions/94.html"
        },
        {
          "type": "eslint_rule_id",
          "name": "ESLint rule ID security/detect-object-injection",
          "value": "security/detect-object-injection"
        }
      ]
    },
    {
      "id": "de9b03c4d9b8697acd8980d61fdb958245ec40eb639b6cc5f747181fb9544f85",
      "category": "sast",
      "message": "Improper Control of Generation of Code ('Code Injection')",
      "description": "Bracket object notation with user input is present, this might allow an attacker to access all properties of the object and even it's prototype, leading to possible code execution.",
      "cve": "semgrep_id:eslint.detect-object-injection:192:192",
      "severity": "Medium",
      "scanner": {
        "id": "semgrep",
        "name": "Semgrep"
      },
      "location": {
        "file": "WebApp/wwwroot/lib/jquery-validation-unobtrusive/jquery.validate.unobtrusive.js",
        "start_line": 192
      },
      "identifiers": [
        {
          "type": "semgrep_id",
          "name": "eslint.detect-object-injection",
          "value": "eslint.detect-object-injection",
          "url": "https://semgrep.dev/r/gitlab.eslint.detect-object-injection"
        },
        {
          "type": "cwe",
          "name": "CWE-94",
          "value": "94",
          "url": "https://cwe.mitre.org/data/definitions/94.html"
        },
        {
          "type": "eslint_rule_id",
          "name": "ESLint rule ID security/detect-object-injection",
          "value": "security/detect-object-injection"
        }
      ]
    },
    {
      "id": "456e6e1b4f9c06eb996d381bac80bc67171fda6b2ac0ba47b29e6cf70d525674",
      "category": "sast",
      "message": "Improper Control of Generation of Code ('Code Injection')",
      "description": "Bracket object notation with user input is present, this might allow an attacker to access all properties of the object and even it's prototype, leading to possible code execution.",
      "cve": "semgrep_id:eslint.detect-object-injection:203:203",
      "severity": "Medium",
      "scanner": {
        "id": "semgrep",
        "name": "Semgrep"
      },
      "location": {
        "file": "WebApp/wwwroot/lib/jquery-validation-unobtrusive/jquery.validate.unobtrusive.js",
        "start_line": 203
      },
      "identifiers": [
        {
          "type": "semgrep_id",
          "name": "eslint.detect-object-injection",
          "value": "eslint.detect-object-injection",
          "url": "https://semgrep.dev/r/gitlab.eslint.detect-object-injection"
        },
        {
          "type": "cwe",
          "name": "CWE-94",
          "value": "94",
          "url": "https://cwe.mitre.org/data/definitions/94.html"
        },
        {
          "type": "eslint_rule_id",
          "name": "ESLint rule ID security/detect-object-injection",
          "value": "security/detect-object-injection"
        }
      ]
    },
    {
      "id": "55c6b5f71793852a51b632454b6822a5fa3e9838740acbe3fc97341ea1f6d9cf",
      "category": "sast",
      "message": "Improper Control of Generation of Code ('Code Injection')",
      "description": "Bracket object notation with user input is present, this might allow an attacker to access all properties of the object and even it's prototype, leading to possible code execution.",
      "cve": "semgrep_id:eslint.detect-object-injection:25:25",
      "severity": "Medium",
      "scanner": {
        "id": "semgrep",
        "name": "Semgrep"
      },
      "location": {
        "file": "WebApp/wwwroot/lib/jquery-validation-unobtrusive/jquery.validate.unobtrusive.js",
        "start_line": 25
      },
      "identifiers": [
        {
          "type": "semgrep_id",
          "name": "eslint.detect-object-injection",
          "value": "eslint.detect-object-injection",
          "url": "https://semgrep.dev/r/gitlab.eslint.detect-object-injection"
        },
        {
          "type": "cwe",
          "name": "CWE-94",
          "value": "94",
          "url": "https://cwe.mitre.org/data/definitions/94.html"
        },
        {
          "type": "eslint_rule_id",
          "name": "ESLint rule ID security/detect-object-injection",
          "value": "security/detect-object-injection"
        }
      ]
    },
    {
      "id": "c3dd2d07c193aa699c8120e903cc0b9d646a4e1892e26099e35b9dca72e3c963",
      "category": "sast",
      "message": "Improper Control of Generation of Code ('Code Injection')",
      "description": "Bracket object notation with user input is present, this might allow an attacker to access all properties of the object and even it's prototype, leading to possible code execution.",
      "cve": "semgrep_id:eslint.detect-object-injection:27:27",
      "severity": "Medium",
      "scanner": {
        "id": "semgrep",
        "name": "Semgrep"
      },
      "location": {
        "file": "WebApp/wwwroot/lib/jquery-validation-unobtrusive/jquery.validate.unobtrusive.js",
        "start_line": 27
      },
      "identifiers": [
        {
          "type": "semgrep_id",
          "name": "eslint.detect-object-injection",
          "value": "eslint.detect-object-injection",
          "url": "https://semgrep.dev/r/gitlab.eslint.detect-object-injection"
        },
        {
          "type": "cwe",
          "name": "CWE-94",
          "value": "94",
          "url": "https://cwe.mitre.org/data/definitions/94.html"
        },
        {
          "type": "eslint_rule_id",
          "name": "ESLint rule ID security/detect-object-injection",
          "value": "security/detect-object-injection"
        }
      ]
    },
    {
      "id": "02cd9f4addae036f8af85128add22001997fcc167d53d262140b9f5da174df70",
      "category": "sast",
      "message": "Improper Control of Generation of Code ('Code Injection')",
      "description": "Bracket object notation with user input is present, this might allow an attacker to access all properties of the object and even it's prototype, leading to possible code execution.",
      "cve": "semgrep_id:eslint.detect-object-injection:331:331",
      "severity": "Medium",
      "scanner": {
        "id": "semgrep",
        "name": "Semgrep"
      },
      "location": {
        "file": "WebApp/wwwroot/lib/jquery-validation-unobtrusive/jquery.validate.unobtrusive.js",
        "start_line": 331
      },
      "identifiers": [
        {
          "type": "semgrep_id",
          "name": "eslint.detect-object-injection",
          "value": "eslint.detect-object-injection",
          "url": "https://semgrep.dev/r/gitlab.eslint.detect-object-injection"
        },
        {
          "type": "cwe",
          "name": "CWE-94",
          "value": "94",
          "url": "https://cwe.mitre.org/data/definitions/94.html"
        },
        {
          "type": "eslint_rule_id",
          "name": "ESLint rule ID security/detect-object-injection",
          "value": "security/detect-object-injection"
        }
      ]
    }
  ],
  "dependency_files": [],
  "scan": {
    "analyzer": {
      "id": "semgrep",
      "name": "Semgrep",
      "url": "https://gitlab.com/gitlab-org/security-products/analyzers/semgrep",
      "vendor": {
        "name": "GitLab"
      },
      "version": "3.13.0"
    },
    "scanner": {
      "id": "semgrep",
      "name": "Semgrep",
      "url": "https://github.com/returntocorp/semgrep",
      "vendor": {
        "name": "GitLab"
      },
      "version": "1.3.0"
    },
    "type": "sast",
    "start_time": "2023-02-15T10:30:25",
    "end_time": "2023-02-15T10:30:58",
    "status": "success"
  }
}
